%YAML 1.1
%TAG !u! tag:unity3d.com,2011:
--- !u!114 &11400000
MonoBehaviour:
  m_ObjectHideFlags: 0
  m_CorrespondingSourceObject: {fileID: 0}
  m_PrefabInstance: {fileID: 0}
  m_PrefabAsset: {fileID: 0}
  m_GameObject: {fileID: 0}
  m_Enabled: 1
  m_EditorHideFlags: 0
  m_Script: {fileID: 11500000, guid: f1b3b4b945939a54ea0b23d3396115fb, type: 3}
  m_Name: "\u0437\u043E\u043C\u0431\u0438_SkeletonData"
  m_EditorClassIdentifier: 
  atlasAssets:
  - {fileID: 11400000, guid: baa1fb7cbfc7cdf498ec1e7b9dcef236, type: 2}
  scale: 0.01
  skeletonJSON: {fileID: 4900000, guid: d6e56a0a617974a448083c74c048f6d6, type: 3}
  skeletonDataModifiers: []
  fromAnimation: []
  toAnimation: []
  duration: []
  defaultMix: 0.2
  controller: {fileID: 0}
