%YAML 1.1
%TAG !u! tag:unity3d.com,2011:
--- !u!114 &11400000
MonoBehaviour:
  m_ObjectHideFlags: 0
  m_CorrespondingSourceObject: {fileID: 0}
  m_PrefabInstance: {fileID: 0}
  m_PrefabAsset: {fileID: 0}
  m_GameObject: {fileID: 0}
  m_Enabled: 1
  m_EditorHideFlags: 0
  m_Script: {fileID: 11500000, guid: a6b194f808b1af6499c93410e504af42, type: 3}
  m_Name: "\u0433\u043B\u0430\u0432\u043D\u044B\u0439 \u0433\u0435\u0440\u043E\u0439_Atlas"
  m_EditorClassIdentifier: 
  atlasFile: {fileID: 4900000, guid: 05791b0f116bec7448e0e58428396bda, type: 3}
  materials:
  - {fileID: 2100000, guid: e278b64c2642abd4b8b9748b88d4e0c9, type: 2}
