%YAML 1.1
%TAG !u! tag:unity3d.com,2011:
--- !u!114 &11400000
MonoBehaviour:
  m_ObjectHideFlags: 0
  m_CorrespondingSourceObject: {fileID: 0}
  m_PrefabInstance: {fileID: 0}
  m_PrefabAsset: {fileID: 0}
  m_GameObject: {fileID: 0}
  m_Enabled: 1
  m_EditorHideFlags: 0
  m_Script: {fileID: 11500000, guid: f1b3b4b945939a54ea0b23d3396115fb, type: 3}
  m_Name: "\u043F\u0440\u0430\u0432\u0435\u0434\u043D\u0438\u043A_SkeletonData"
  m_EditorClassIdentifier: 
  atlasAssets:
  - {fileID: 11400000, guid: 14c827245c6ae04499a0c6e9acd8e982, type: 2}
  scale: 0.01
  skeletonJSON: {fileID: 4900000, guid: 028d73bf60e2fd643b88730f7cff7727, type: 3}
  skeletonDataModifiers: []
  fromAnimation: []
  toAnimation: []
  duration: []
  defaultMix: 0.2
  controller: {fileID: 0}
